  .   ____        _   _          _           _      __ _ _
 /\\ / ___|  ___ | |_| |__   ___| |__  _   _( )___  \ \ \ \
( ( )\___ \ / _ \| __| '_ \ / _ \ '_ \| | | |// __|  \ \ \ \
 \\/  ___) | (_) | |_| | | |  __/ |_) | |_| | \__ \   ) ) ) )
  '  |____/ \___/ \__|_| |_|\___|_.__/ \__, | |___/  / / / /
 ======================================|___/======= /_/_/_/
 __   __        ___    __      __   ___  __        ___  __
/  ` /  \ |\ | |__  | / _` __ /__` |__  |__) \  / |__  |__)
\__, \__/ | \| |    | \__>    .__/ |___ |  \  \/  |___ |  \
:: Spring Boot :: ${spring-boot.formatted-version}
